xxxxxxxxxxxxxxxxxxxxxxxxxxxxxxxxxxxxxxxxxxxxxxxxxxxxxxxxxxxxxxxxxxxxxxxxxxxxxxxxxxxxxxxxxxxxxxxxxxxxxxxxxxxxxxxxxxxxxxxxxxxxxxxxxxxxxxxxxxxxxxxxxxxxxxxxxxxxxxxxxxxxxxxxxxxxxxxxxxxxxxxxxxxxxxxxxxxxxxxxxxxxxxxxxxxxxxxxxxxxxxxxxxxxxxxxxxxxxxxxxxxx
x                                                                                         x                                                         x                                                                                              x
x                                                                                         x                                                         x                                                                                              x
x                                                                                         x       xxxxxxxxxxxxxxxxxxxxxxxxxxxxxxxxxxxxxxxxxxxRRRRRRRx         RRxxxxxxxxxxxxxxxxxxxxxxxxxxxxxxxxxxxxxxxxxxxxxxxxxxxxxxxxxxxxx             b        x
xxxxxxxxxxxxxxxxxxxxxxxxxxxxxxxxxxxxxxxxxxxxx         x   GxxxxxxxxxxxxxxxxxxxxxxRRRRRRRRRx                                                 x       x           x                                      x      B              xxxxxxxxx   xxx       x
x                                                 x   x    x                              xx                                                x       x           x                                      x      B                       xxxxxxxxxBBBBx
x                                                     x    x                              x                                                 x       xGGG        x                                      x      B                                    x
x                                                     xG   x                          GGGGx                                                 xGGGGGGGx           x                                      x      B                                    x
x        x    x    x    x    x    x    x    x    x    x    x                              x                                                 x       x           x                                      xRRRxxxxxxx                                 x
x                                                     x    x                    GRRRRRRRRRxxxx                                              x       x           x                                      B      x        RRR                         x
x   xx                                                x   Gx                              x      GGG                                        x       x         RRx                                      B      x                 BBB                x
x                                                     x    x                 G            x            RRR                                  xRRRRRRRx           x                                      B      x                        BBBBGGGGRRRRx
x                                                     x    x                              x                   xx                            x       x           x                                      Bxxxxxxx                                    x
xxx                                                   xG   x            G                 x                                                 x       GGGG        xxxx      B       B       B     xxxxxxxx      x                                    x
x      xxx                                            x    x                              x                             x                   x                   x         x                     x             xxxxxxxxxxxxxxxxxxxxxxxxxxxxxxxxxxxxxx
x            xxxxxxx                                  x    x       G                      x                                                 x                 RRx         x                     x                                                  x
x                                                     x   Gx                              x                                    x            xxxxxxxxxxxxxxxxxxxxxRRRRRRRRRxxxxxxxxxxxxxxxxxxxxxxx                                                  x
x                       xxxx                          x    x                              x                                                 x                             x                                                                        x
x                                                     x    x g  GGG                       x                                                 x                             x                                                                        x
x                             xxxx                    xGGGGxxxxxxxxxxxxxxxxxxxxxxxxxxxxxxxx                                           x     x                             x                                                                        x
x                    xxxx                             B          R                 R                                           x            B                          xxxx                                                                        x
x            xxxx                    xxx              B          R                 R                                    x                   B                       xxx   x                                                                        x
x   r    xxxx                                         B          R             xxxxxxxGGGGGGGGGGGxxxx             x                         B                    xxx      x                                                                        x
x   xxxxx   x                            xxx          B          R         xxxx      x     x     x   xxxxxxxxx                              B                 xxx         x                                                                        x
xxxxxxxxxxxxxxxxxxxxxxxxxxxxxxxxxxxxxxxxxxxxxxxxxxxxxxxxxxxxxxxxxxxxxxxxxxxxxxxxxxxxxxxxxxxxxxxxxxxxxxxxxxxxxxxxxxxxxxxxxxxxxxxxxxxxxxxxxxxxxxxxxxxxxxxxxxxxxxxxxxxxxxxxxxxxxxxxxxxxxxxxxxxxxxxxxxxxxxxxxxxxxxxxxxxxxxxxxxxxxxxxxxxxxxxxxxxxxxxxxxxx