66666     6666661
x                             x                                        x
x                              x                                       x
x                               888               x
                                                                8
                                                             3       x
                                                          xx            
                                                                        
x                                                     xx                
xx                                                                      
3                                              xx                    x
x      x                                               xx           4
x            x      x                                       3   6
x                         x                                            x
x                              x         xx               xx           x
94                       xx       xx                        x
            x                                      xx                   
            x                                          3              
x           x                                               4       x
3         x                                                        3
5       x                                                      5
7     x                                                    7
91  999       555551
