99999999999999991
x                                                                                                                                              x
x                                                                                                                                              x
x                                                                                                                                              x
x                                                                                                                                              x
x                                                                                                                                              x
x                                                                                                                                              x
x                                                                                                                                              x
x                                                                                                                                              x
x                                                                                                                                              x
x                                                                                                                                              x
x                                                                                                                                              x
x                                                                                                                                              x
x                                                                                                                                              x
x                                                                                                                                              x
x                                                                                                                     3                      x
x                                                                                                                    x                         x 
x                                                                                                                   x                          x 
x                                                                                                                  x                           x 
x                                                                                                                 x                            x 
x                                                                                                                x                             x 
x                                                                                                               x                          D   x 
x                                                                                                              x                         7
x                        2  2  2                        R5G5B5W                x x 2 2       x                         x      x
x                                      x                x  R     G     B     W       x    x                  x                         x       x
x        5   5     e    e     3     E     5  R  r  G  g  B  b  W      x  E   x  E   E  E  5    E   E   E            x        x
99999999999999991